<?xml version="1.0" encoding="UTF-8" standalone="no"?>
<!-- Created with Inkscape (http://www.inkscape.org/) -->

<svg
   xmlns:dc="http://purl.org/dc/elements/1.1/"
   xmlns:cc="http://creativecommons.org/ns#"
   xmlns:rdf="http://www.w3.org/1999/02/22-rdf-syntax-ns#"
   xmlns:svg="http://www.w3.org/2000/svg"
   xmlns="http://www.w3.org/2000/svg"
   xmlns:xlink="http://www.w3.org/1999/xlink"
   xmlns:sodipodi="http://sodipodi.sourceforge.net/DTD/sodipodi-0.dtd"
   xmlns:inkscape="http://www.inkscape.org/namespaces/inkscape"
   width="161.66042mm"
   height="13.229167mm"
   viewBox="0 0 161.66042 13.229167"
   version="1.1"
   id="svg3749"
   inkscape:version="0.92.4 5da689c313, 2019-01-14"
   sodipodi:docname="generation-of-object-file.svg">
  <defs
     id="defs3743" />
  <sodipodi:namedview
     id="base"
     pagecolor="#ffffff"
     bordercolor="#666666"
     borderopacity="1.0"
     inkscape:pageopacity="0.0"
     inkscape:pageshadow="2"
     inkscape:zoom="0.35"
     inkscape:cx="311.21428"
     inkscape:cy="-477.85714"
     inkscape:document-units="mm"
     inkscape:current-layer="layer1"
     showgrid="false"
     inkscape:window-width="679"
     inkscape:window-height="729"
     inkscape:window-x="683"
     inkscape:window-y="18"
     inkscape:window-maximized="0"
     fit-margin-top="0"
     fit-margin-left="0"
     fit-margin-right="0"
     fit-margin-bottom="0" />
  <metadata
     id="metadata3746">
    <rdf:RDF>
      <cc:Work
         rdf:about="">
        <dc:format>image/svg+xml</dc:format>
        <dc:type
           rdf:resource="http://purl.org/dc/dcmitype/StillImage" />
        <dc:title></dc:title>
      </cc:Work>
    </rdf:RDF>
  </metadata>
  <g
     inkscape:label="Layer 1"
     inkscape:groupmode="layer"
     id="layer1"
     transform="translate(-23.49122,-9.1711302)">
    <image
       y="9.1711302"
       x="23.49122"
       id="image3759"
       xlink:href="data:image/png;base64,iVBORw0KGgoAAAANSUhEUgAAAmMAAAAyCAYAAAAQhdwGAAAABHNCSVQICAgIfAhkiAAAIABJREFU eJztnXdUVNf2x78DM5ShDEV67yBNQAU7IKao0ahJbM9EH8aSZ/KieZZEk5dYokme5v2eP13PRE1M okaNvUVBxRYE6U3K0NsMI2WGGRiYsn9/kJkfICgkCqPOZ6291tx7zzmzzz17n3PuKfcyiAjPA1Kp 1EAsFhuLRCJToVDIEYvFxippbGw0V4Vra2vTb2lpYfeWjr6+fhubzW5RHZuZmTUZGxuLVWJmZtZk YmLSbGxsLDY0NGx90vnSokWTkMlkLJWPCYVCTnNzs4lKRCKRqSqcUCjkKJVKnZ7SYLFYMmNjY7Hq 2NzcvNHExKTZ1NRUZGJi0mxiYtLM4XCEHA5HqKOjoxyIfGnR8ixBRIympiaz1tZWQ6lUatDY2Gje +bdUKjVobW01VIVvb2/Xk0gkRo9K18zMrInBYFDnYwMDAymbzW7hcDhCAwMDqZGRkaTz7yeVx6cN 5mAr8GdpbGw0Lysrcy0rK3OtqKhwFggETjwez1UgENgKBIIhfD7fks/nm0okEr2B1s3Q0FBmZWUl tLW1FVhZWdVZWVnV2tjYlNvY2PAdHR2rXFxcyl1cXMptbGz4A62bFi39gYgY1dXVDqWlpW6lpaVu lZWVbnV1dS58Pt+xtrbWrq6ubgiPxzNramoyGEi9rK2tRVZWVo22trZ8W1vbKmtr60o7O7tqR0fH Knd39xI3N7dSa2vruoHUSYuWgUapVOrweDzb6upqh5qaGvuqqirH+vp6m4aGBvv6+nrb+vp6q/r6 eouGhgaOQCAwEQqFA+qnvcFkMpUWFhZiS0tLoaWlZaOFhcV9S0tLvqWlZY2FhUW9nZ1dra2tLc/J yanS3t6+xtzcvHGwdX5SMJ6GkbH6+nrLvLy8offu3Ruan58/gsvl+lVUVDiVlZVZC4VC/b6koaur CwsLC5iYmMDMzAzGxsZqMTExga6uLgCAw+FAR+f/H9gNDAwglUq7pNXY2GEPMpkMUqkUYrEYYrEY IpEIQqEQYrEYTU1ND8TrDUNDQ5mbm1utq6trqYuLS76fn1+un5/fPT8/v3sODg7VfUpEi5bHQFNT k1lubq5/Tk5OUG5u7igul+tbWlrqVFpaatXW1qb7qPgMBgOWlpYwNTWFmZkZTExMYGJiAlNTUxgb GwMAWCyW+jcA6OjogMlkor29XX1OKBRCqVRCKpWira0Nzc3NahGJRGhsbFT74aMwNjZuc3Nzq3Z3 d+d6e3tn+vv75wYEBOQMHTo0Tzt6reVpQCaTscrKylxLSkrcuVyuV3FxcXB5eblXbW2tXUVFhQ2f zzeRy+U9jjT3hrm5OYyMjGBgYAAOh9Pld3cf7d4uMplMMJnMB9o4qVSK1tYOl5LL5ZBKpZBKpRCJ RJBIJJBKpRAKhWhpaUFrayuEQmG/7gObzW53dHQU2Nvb1zo6Opa6uroWeHp6ct3d3Uu8vLyKbG1t ef1KUIPQqM6YQqHQzcvLG5qSkjIyJSVlYl5eXlBubq6rQCDodXjU3Nwczs7OcHV1haOjI+zs7GBn ZwcrKytYWVnB1tYW1tbWYLN7nXl8YkilUggEAvD5fNTV1UEgEKCurg6VlZXg8XgoKytDWVkZBAJB r2lwOJwWX1/fkoCAgLthYWF3w8LCUoODgzP19fXbBjArWp5BeDyebWJi4qjk5OSY9PT0iLy8PI/K ykpOb+Ht7e3h7u4ONzc3ODg4wM7ODra2tmofs7OzA4fTa/Qngsqn+Hw+amtr1f5VU1ODkpISlJSU oL6+vse4urq6Sjc3t9qgoKD04ODgu+Hh4UkRERF3OBxO/1oILVoeE01NTWY5OTkB2dnZwdnZ2WO4 XK5vcXGxc0VFhfnDOls6OjqwsbFRt4GOjo6wsrKCpaUlLC0tYWFhAUtLS1hZWcHCwgKmpqa9JTWg KBQK1NfXo6GhAfX19V1+8/l8CAQC1NbWoqqqCtXV1WhqanpoekZGRm0eHh5Vnp6eBd7e3llBQUFZ AQEBOb6+vvksFks2QNn6QwxqZ4zP59skJCREJSUlvXD37t3R6enp7hKJhNU9HIfDga+vL/z9/eHr 6wtPT0+4u7vD1dV1wCv/J4FEIkF5eTnKyspQWFiIgoIC5OfnIzc3t8eOGovFUgQFBRWMGDHi1ogR I5LGjx9/w9PTkzsIqmt5SlAqlTqZmZnBCQkJLyYlJb2QmJgYUlFRYdY9nLGxMfz8/BAUFARvb2/4 +/urO2AGBhoxs9FvRCIRSkpKwOVyUVRUhOzsbOTm5iI/P7/LaBwAMBgM8vX1LQ8PD78xevToW1FR Ude0vqXlSVBcXOyRnJw8MjMzc2x2dvaInJwcr558EugYiXJ2doaHh4e6/XNxcYGDgwOcnZ1ha2sL JvOpX3X0SFpaWlBZWYna2lqUlZWhvLwcXC4XXC4XJSUlqKvreUUCi8VS+Pn5lQYEBKQHBgamhYSE pIeHhyeZmZk9vHc3gAxoZ6yurs76+vXrkQkJCbMSEhLG5+Xl2XYP4+npieHDhyMkJAShoaHw8/OD g4PDgOmoadTX1yMvLw9ZWVlITU1FSkoK8vLyoFAouoRzdnbmR0ZGxkVFRV2JjIxMcHV1LRscjbVo CmVlZa7x8fEvx8fHv3H16tWRAoGgy/CwmZkZIiIiMHLkSAwbNgzBwcFwc3MDg8EYLJUHFLlcjsLC QmRkZCAtLQ1JSUlITU1VT7OocHNzq4mJibkwadKky9HR0VctLS17HmrToqUXhEIhJykpKTwpKSkq KSlpYnJysn93fwQAIyMj+Pv7IygoCH5+fhg6dCg8PDzg6uoKFuuBcQot3RCJROByuSgsLERhYSGy s7ORnZ0NLpf7QJvJYDDIx8enIjw8/ObIkSMTIyIi7gQFBWUxmUz5YOj+xDtj2dnZgWfOnJl/6tSp OampqS6d/8/ExARjx47F6NGjMXLkSIwYMQLm5uYPSU0L0PF0kJ6ejpSUFNy4cQO3b98Gn991D4CX l1f59OnTj02fPv30qFGjEnV1dRW9JKflGSInJyfgxIkTi44dOzY3JyfHrvM1Nzc3jBs3DtHR0Rg5 ciR8fX2fm45XX5HJZMjKykJiYiKuX7+O69evdxmd1tHRoTFjxtyZOXPm0ddee+0XR0fHqkFUV4uG 0tLSwr558+a4+Pj4169cufJCZmamo1Kp7OJsdnZ2CAsLw8iRIxEYGIjAwEC4ubl1WZul5fEglUqR m5uL7OxspKWlISMjA6mpqWhpaekSzsjISDpu3LjbMTExFydOnHglKCgoa6B2bD+RzlhiYuKoY8eO LTt9+vTUkpISC9V5PT09REdHIzIyEpGRkQgLC3suhlafNESEvLw8XLt2DQkJCYiLi4NIJFJft7Ky anrllVdOzpo165cXX3zxkrZj9myRn5/ve/DgwRW//PLL6/n5+daq80ZGRnjppZcQExODSZMmwcPD YzDVfCohImRmZiI+Ph5xcXGIi4uDqs5kMBgUHh6eOmvWrCMLFiz4Ubsr+vkmIyNj2Llz5+bEx8dP S0xM9Glvb1f3qphMJiIiIhAeHq4WZ2fnwVT3uUculyM7Oxt37txBUlISkpKSkJ+f3yWMlZWVMCoq Kv6FF164OG3atDNWVla9L/D+sxDRY5Hy8nLnTZs2feXr61sHgFRib29PS5cupYsXL5JUKiUtTx6F QkG3bt2iNWvWkLe3N3UuD2tr6/qVK1fuyMrKCqTHVPZaGXhpaWkxPHDgwJLx48cXdCtfWrZsGcXF xZFMJuvBOrT8GcRiMR09epRmz55NRkZG6vvOYrHkM2bMOHn+/PnJCoVChzTARrTyZEWhUOjcuHFj 3KpVq753d3ev7+yHurq6FBERQevXr6erV69q276nBD6fT4cPH6bY2FhydXWlbmWqGD9+/G9ff/31 +6Wlpa70mO3pTxvjmTNnZk6aNCn796E8dQds5cqVlJSUREql8gnfPi2P4t69e/TZZ5+Rv79/F+Ma NmxY1t69e2OlUqk+aUDlppVHS1VVlcPKlSt/5HA4bapyNDExoUWLFlFCQgLJ5fLezEDLY6alpYWO Hz9OU6dOJRaLpfYrZ2fn6i+//HK1SCQyIQ2wGa08XklJSQlbsWLFz9bW1pLuAw+xsbF06tQpampq Ii1PP1wul3bu3EnTpk0jAwODLu1naGho5o4dO1by+Xxregx29Ycitba2GuzZs2elj4+PQKWYoaEh zZ8/n+Li4rQNggaTkpJCK1asIEtLS7VR2dra1m3ZsuWj+vp6C9KAyk4rDwqXy/VYsmTJaT09PYWq 3EaNGkX79u2j5ubmhxW5lgGAz+fTtm3byMvLS+1XFhYWTf/85z8/1frV0y/19fUWO3fuXBMSElLZ uUH28vKiNWvWUGJiIikUigcNQ8szg1gspmPHjtG8efPIzMxMbQP6+vrtr7/++rE/Oyrer8AymYy5 a9euD62trVtUiri5udHXX39NDQ0NA3ZTtPx52tvb6eDBgxQWFqY2KiMjo5b169dvbmpq4pAGVIBa IQgEgiF//etfLzCZTKVq+mPevHmUmpr6qCLWMggolUq6ePEiTZgwQe1XxsbGks2bN69vaWkxJA2w Ka30XQoLC70WL158Vl9fX/0QZG1tTStXrqS0tLSejUDLM09bWxsdP36cpk+f3mVU3MXFpXLHjh0r xWKxEfXT1voc8MSJE3M9PT3V8+LDhw+no0ePakfBngGuXr1KU6ZMURvUkCFD6nft2vWOTCZjkgZU iM+jyGQy5r///e9PzczM1NORsbGxVFRU1Jci1aIB3L59myZPnqz2Kw8Pj5KTJ0++ShpgX1p5uKSn p4fMnj37ho6Ojrr8Jk+eTEePHqW2trZey1zL80dtbS1t27aN3NzcOrehDRs3bvy4oaHBnPpoc48M UFFR4RQTE5Oj+pOhQ4fSyZMnBzq/WgaAtLQ0ioyMVBuUv79/bkpKShhpQOX4PElubm5AUFBQjaoc pkyZou2EPcVcv36dQkJC1H41ffr0U/fv37ckDbA1rXSVsrIylxkzZtz5/WPXpK+vT8uWLaPi4uKH lrEWLUqlks6fP09jxoxR+7qJiYl427Zta9va2vToEbb30Is///zzYnNz83YAZGBgQLt27dLu0HoO OHHiBDk4OKh2icm2bNnykVwu1yUNqCyfdfnuu+/+zmaz5aoFwRcuXOhzuWnRXGQyGe3atYuYTCYB ICcnp8obN26MIw2wOa0QpFKp/qZNm/5taGioUC0HWL16NdXU1DyqaLVoeYDr16/TpEmT1J0yX1/f /Li4uBh6iA32eLK9vZ21aNGii6qEXn31VRIIBIOTKy2DglQqpQ8++IBUw/Tjxo27oX2af3Iil8t1 Y2NjL6h8btGiRSSRSPpTZFqeAqqqqmjcuHEEgJhMpnznzp0rSAPs73mWlJSUCC8vr3oAxGAwaMGC BdpOmJbHwtWrV2no0KHqTtncuXMP9bbL+oETEomEPXny5HRV5L179w5aRrQMPleuXCE2m00AyM/P L6+iosKJNKACfZakvb2d9cYbb9xUNQY//fRT/wpJy1OFTCaj9evXqyvobdu2rSUNsMPnUfbu3fsP AwMDhWpn5PXr1/tShFq09BmZTEb/+te/1P7u5+eXd+/ePV/qZotdDkQikcmoUaOKAZCNjY12x5YW IupYoBgcHKzaLVJWVFTkSRpQkT4LIpfLdWfMmHEHAJmZmdGdO3f6WzxanlK+//570tXVJQC0devW daQB9vi8iFwu13377bfPqhrId999V7swX8sThcvlUlBQEAEgU1NT0dmzZ6dSJ5vsYqCzZ8++AYCs rKyooKBgMPXWomE0NjZSYGAgAaDg4OAMiUTCJg2oVAdbLl68+FJPTzl9lc8++2zn72vztA8/zyEH Dx6k30dElb/++uuLpAE2relSVlbmcvr06WlKpZLxR+LL5XLduXPnXlN1xH788cf+FJkWLX8YiURC c+fOJQCkp6fXdubMmVfod7tUG+j//u//fgyAOBwO3bt3b3A11qKRiMVi8vPzU61p2k8aUDEPtpSW lroaGBi0zp0791BeXp5ff+L+9ttv43V1dZW6uroUFxf3xwpFy1PPF198oXr5cu3jepv3sy6jRo36 LTQ0NPXUqVPT+9spW79+/bcAiM1ma6cltQwKa9asod9tUJKWlhZC9HtnrKSkxE31Urvjx48Ptp5P DYmJibRt2zbatm0b1dXVDbY6A0JeXp56R9i5c+emkAZUzIMtS5Ys2dN5gWZfOmVyuVxX9R3XDz/8 8A+Xx9NCZ1+prKzsNdzu3btp27ZttG/fvgHTrby8nOrr6x9behkZGf0Kr1QqKTo6mgDQggULfiAN sGlNlwsXLrzc6S34hX3tlF27du0F1dpM7U7lJ0NaWlqffP1556233iIA5O3tXdDa2moAIsJf//rX cwBo2rRpg63fU0V6ejpt3bqVAFBWVtZgqzNgfPXVV6pvc6WSBlTMgy2lpaWunT+RwmAwlHPnzj2U m5s7tLc4R44cma9aEtDftSqTJk2iiIiIfsUZbDr7ys2bN3sNd/DgQZoxYwYFBgYOiF7nzp2jUaNG PdZvCS5dupRWrlzZr+/yFhUVEZPJVOro6ChKSkrcSAPsWtOls88BoKCgoMyTJ0++2lunTKlUMgIC AngAaO3atX0uGy39Izc3t0++/rwjlUrJ09NTqVozColEwjY2Nm4HQDk5OYOt31NHeXn5c9cZa2lp IdX7eFJTU0NJAyrmwZalS5f+t3vjwGAwlHPmzDncU6ds6tSpyQDoyy+/7Ne9z8/PV39+Izk5uV9x BxuVrzyqgt66deuAdMby8/NpyJAhVFZW9ljTVSqVFBERQdu3b+9XvOnTpysB0ObNm9eTBti0psu5 c+emdPe5h3XKLl269KJqo4x2sf6Tpa++/rxz6tQpAkB2dnY1Or/99ttosVjMcnd3h7+/PzSR9vZ2 1NTUoL29vcfrUqkUtbW1IKJHpsXj8dDa2qo+lslk4PF4j4zb1NQEkUjUL73lcjnu37/frziqvMpk sn7FG0gMDQ0xffp0BgDEx8fHDLY+msBHH330OYvF6lJoRMT4+eef5wQEBOTMmTPn57y8vKEAoFQq da5fvx4MAHPnzu3X/+zfvx+bNm2Cnp4e9u/f32u4tra2h9qRSCQCj8frNb5YLIZAIHikPu3t7ait rYVSqVSfEwqFEAqFD42nUCjA4/GgUCge+R8qiAi1tbVd/Lc3mpubUVVV9dD0//nPf+KFF16Ai4vL A9daW1sfWac0NTX1eI8YDAZWrlyJrVu39suPZ8+ezQCAq1evRvc50nPMlClTzoeGhqZ1P5+VlRU0 Y8aMk8OGDcs4efLkDCJiAMDp06cXAUBsbCz09PQGWt3HjkwmQ21tba/tYltb2wO+2Rt/tF0UiUSP 9PXuSCQS8Pn8fsUBgPr6+n63wZrO9OnTYWFhoaitrbVj5ubm+gPA6NGjB1uvB1AoFFi6dCnu3r0L a2tr5Ofnw8vLC9999x1cXFyQn5+PxYsXg8fjwdnZGYWFhVi2bBk2bNgAACgoKMDkyZNRVVWFtWvX 4u7du8jKykJDQwO2bt2KcePG4S9/+Qvq6urAZrNx/vx5BAUFobm5GcOGDQOPx8PLL78MfX19VFdX o7S0FM7Ozjh8+DAcHR171bupqQlLlixBRkYGHBwcUF5ejuXLl2P16tUPzevf/vY33LlzB1ZWVsjP z4ePjw/27dvXY2Mx2IwaNYrx888/48cff1zQ0NBgMdj6aAIBAQE56enpId3PExHjyJEjs48cOTI7 Kirq2oYNGzY3NzfrGRgYPNSOuiOXy3H8+HFkZGQgPT0dhw8fxvbt28Fms9Vh2tvbsXjxYmRkZMDG xgb37t2Dv78/fvjhB9jY2IDL5WL+/PlgsVhgMpkoKCjAwoULsXXrVgAdHSlVfHt7e5SXl+P999/H +++/DwD45JNPsG/fPtTU1OD48eNYs2YN7t+/jyFDhuDSpUv49ttvcfDgQfD5fLz++uv46aefwGAw uuQjOTkZH374IYAOH33vvffUPtsbly9fxt/+9jdYW1tDKpWCyWTi+++/h5+fHwDAw8MDdXV1GD9+ PNzd3XHmzBlUV1dj9erV6rx1prW1FefOncOXX37Z5XxeXh4WLVoEoVAIOzs75OXlYcWKFfj444/V YbKzs7Fo0SIYGxuDiFBYWIjY2Fhs3rxZHWbs2LG4f/8+Ll++jClTpjyybAEgIiJCdX9Grlu3bluf Ij3nuLu7l6SlpYX2dC0rKyto5syZJ1gsluzIkSOz09PThwHApEmTBlbJx4yqrbh16xbs7OxQUFAA Nzc37NmzB76+vigtLcVbb72FmpoadTu5YMECbNvWYVI1NTUYN24cqqqqsHz5chQXFyMtLQ0NDQ3Y tm0bRo8ejQULFqCurg7Gxsa4ePEi/P391e1iXV0dxo4dC3t7e3C5XFRWVsLW1hY///wznJ2de9Vb LBYjNjYWKSkpcHJyQmlpKZYvX45169Y9NL+ZmZlYtGgRFAoF9PX1IZFI8D//8z+IiXk2xgGioqLo +PHjwNatW9cBoCVLlgzaUF1vHD9+nIYPH65eeyGVSikoKEg99Hnu3DkaPXq0+mPltbW1ZGpqSleu XOmSTmBgILm5uRGXyyUiok8//ZT09PRo6dKlJJVKqb29ncaNG0evv/56l3hTpkwhQ0ND9SsHWltb afz48TRlyhR1mJ6mKefNm0djxoyh1tZWIupYD2JoaPjQb3oeOnSIwsLC1HltbW0lb29vjR3mPXr0 6APTA1rpm+jq6soB0JAhQ/p1z0+dOkWLFy8mIqJLly4RAPrhhx+6hNmzZw9NmDBBfSwWi8nT01Nt n6+88gp98cUX6uuJiYldpgSnTZtGEydOpPb2diIiysrKIj09PTp79qw6zM2bNwkA/f3vfye5XE4S iYT8/PzI19eXDh8+TEQdH8kGQAkJCep4Kl+ZOHEiSaVSIiK6ceMGMRgMunz5sjpc92nKqqoqMjY2 7vIKgo8++og8PT27fJ5t3rx5ZGxsTL/++qv6XvQ2DZySkkIA6NKlS13Onzt3jmJiYtR+WFJSQmw2 u0s+xo4d2+Vl2FeuXOlxWpXNZtM///nPHv+/J5qamgbdNp8lYTKZss7HHA5HAoDS0tL6XCaayNmz Z8nHx0fd7kmlUgoNDaVz584RUYd/hoeHq32joaGBhgwZQr/88kuXdAIDA8nR0ZEKCwuJqMPv9PT0 aNmyZSSVSqmtrY0iIiJo3rx5XeLNmzeP9PT06MaNG0RE1NbWRtHR0TRq1Ch1mJ6mKd944w0aO3as 2vfz8/OJzWbTkSNHes1rfX092djY0IYNG9TnDhw4QIaGhpSXl9e/G6ehvPvuu+0AiMlms1uAjqFD TUMqlaK8vBxXrlzBxIkToa+vj7i4OJiamgIApkyZgilTpkAkEqmnA93d3fHbb78hOrrrSH9MTAw8 PDwAdAwNfvrpp5g0aRL09fUBABMnTsSxY8ce0CE8PByhoR0PXgYGBnjnnXcwZ84cVFdXw8HB4YHw tbW1OHz4MA4dOgQDAwMAgKenJyIjI3HgwAG8+uqrD81rfHw8YmJiYGBggJs3b6rzqmnw+XwCwAgN DU174403jg62PprADz/88KZqKlKFra0tr76+3lImk7EAIDo6+uqGDRs2R0dHX+3vkPu+ffuwfv16 AB327Orqin379mHBggXqMC0tLSguLkZCQgImTJgAIyMj3Lp1C+bm5urr165dw2uvvQZ3d3dERETg woULADps98yZMzhx4gRYLBYAIDAwEBMmTMDBgwcxderULvosXLgQurq6YLPZGDduHH799VfMmTMH QMdIu6mpKfLy8jBhwoQu8RYvXqz2u3HjxmHkyJHYtWtXryMWe/bsgaGhIebPn68+9/bbb+Pzzz/H b7/9hvHjx6vPe3p64sUXXwQALFmypNd7WVdXBwAwNjbucl5VpzQ1NaGhoQEA4OXlhVu3bqnzIZVK 8euvv+LFF1+Eo6MjoqKi1PewMyYmJqipqelVh+7U19cDAExNTUUfffTR532O+ByTnZ0dePDgwfmd z5mamooYDAYJhUIOAKhGxr766qt/JiYmBvdl+l2TaWlpAZ/Px5UrV9Rt2KVLl9Qj5GPHjsWdO3e6 tIu+vr5ISEjArFmzuqQVFRUFLy8vAMC0adPw4YcfYvLkyWr/nDRpEs6fP/+ADv7+/hg3bhwAQE9P D8uXL8frr7+O0tJSuLm5PRBeIBDg2LFj+PHHH9Vp+/j44KWXXsLBgwfxxhtv9JjXX375BXw+H6tW rVKf+8tf/oI1a9Zg//79+Oqrr/p17zSRioqKFgAcpr+/fy4A3Lp1a5BVepBZs2bh6tWrePnll+Ho 6IgpU6Zg2bJlsLa2BtAxxfHmm2+irq4Ow4YNA4vFQlVVVY8dy87TQRYWHbNqNjY26nP6+vpobm5+ IJ6dnV2XY3d3dwBAUVFRj52x/Px8EBE+++wz/Otf/1KfLy8vh62tba95nTdvHm7evKnO69SpU7F8 +XJ1XjWN27dvNwEwnz179pE1a9Z8+cgIzzhlZWWunRtQW1tb3v3794fweDxbXV1dxbx58w5t2LBh s5+f3z2lUqljamraIhKJ2BUVFQ8d2lfB4/GQnZ0NJpOJ1NRUAFB38IuLi9UPGrGxsUhMTMTEiRPh 6uqKKVOm4J133lHb+o4dO7Bw4UJ4eXkhPDwcs2bNUndaCgsLAQDr16/Hli1b1P+tmp7vTmf7t7Cw eMAfzMzMelxP0j2ci4sLcnJyes17fn4+JBIJRowYoT5Hv69lKSoq6tIZ68kne0Ll64aGhl3O5+Tk 4M0334RIJEJQUBCYTCaqq6shFovVYXbu3IlFixbB1dUVo0ePxowZM7B06dIH/kM1pdJX7t69SwAY I0aMuLt27dov+hzxOYWIGM7OzhWqYw6HIyQihkgkMgWAsLCw1I8//nizgrW4AAAcKUlEQVTTtGnT zjAYDIqPj49JTEwMvnTpEl544YXBU/xPMmPGDFy9ehVTp06Fvb09pkyZgiVLliA4OBgAUFJSgjff fBNVVVUICQkBi8VCcXHxI31Y9WBib2+vPsdms3tc99g5DPD/7SKXy+2xM6ZqFzdt2oSvv/5afb6i okLdHvdEQUEBzMzM1A+TAKCjowMXFxfk5eX1Gu9pgYiQkJBgAADMUaNGJRobG7eWl5cbZmdnIzAw cLD1U6Ovr4+9e/diy5YtOHnyJPbs2YNvvvkG8fHxGD9+PFasWAGFQoGioiIwmUwAUPfWu/NHF2zK 5fIux21tbQAerMRVmJiYAAC++OKLB3TR0dHp9X/09fWxf/9+fP755zh58iR27dqFvXv34sqVKxgz Zswf0v1J0dbWhpMnT5oAwKRJk+IGWx9NYMWKFf+rVCp1AIDJZMp5PJ4tk8mUL1iw4Mf169dv8fHx KVCF1dHRUY4fPz7h3Llzkw8fPoy1a9c+Mv0DBw7Azs4OX3zx/200EYHBYGD//v3qzpOJiQmOHDmC qqoqnDx5Ert378a+fftw69YthISEICgoCGlpaUhPT8dPP/2EzZs349ChQ0hKSlLb7o4dOxAeHt7l /3uy3e4+paur26d71d2n5HJ5r/4EAEZGRnB0dERc3IOm9rB4D8PKygoAunSyAGDRokUwMTFBcnJy r3VKREQEcnNzcffuXRw/fhwbN27E0aNHcevWrS73QCQS9eth6uDBg/UAhkRHR1/9Q5l6zjhx4sTM qqoqRwAwMDCQqkbCRowYcfeTTz7ZOGXKlPMMBoNU4adPn3569+7d7+zduxeff/65eoTmaYPFYuG/ //0vNm7cqG4Xv/32W1y6dAlRUVF49913IZFIUFhYqPbR7qPaD6MvbWV3H1ZtInhUu7h161ZERkZ2 udZ9TWlnjI2NIZVKHzjf1tamsbNG/eHUqVMyoVCob2dnV6vDZrNbZs+efQhAlwWomsCpU6dw7tw5 2NjYYNmyZUhLS4OHhwcuXboEACguLkZoaKi60gTQ4+jWn6GgoKDLcWZmJgwNDdULh7vj6+sLQ0ND cLlcmJubqyUuLg7ffPNNr/9z6tQp/Prrr7C1tcXy5cuRmZkJOzu7Hqc/BpstW7aI2tramGFhYakh ISHpg63PYFNSUuJ+/vz5Lqu033rrrQN5eXlDf/jhhzc7d8RUvPnmm98DwO7du9Ud/N4gIhw8eBCn Tp3C0aNH1XLs2DHExMTgwIED6l2Dhw4dwo0bN+Do6Ih3330X2dnZMDc3V/vMP/7xD9TX1yMkJATb t2/H+fPnkZaWhtLSUnh7e/douxcuXHio7faX3NzcLnnLyspCWFhYr+FDQ0NRVVUFBoPRRa+lS5c+ dEfow1CNEnTf7VxUVISwsLAudUpjY2OXMCtWrAARITw8HF9++SWOHTuGO3fuoLa2Vh1GLpdDLBbD ycmpT/rk5ubi7NmzQ3R1dRVz5849/Icy9RxBRIzXXnvtF9WxVCo1CA8PTzp//vyU5OTkkVOnTj3X uSMGdDw4BgYG5ohEInz22WcDr/Rj4vLlyzh9+jSsra2xdOlSpKamwsfHBxcvXgTQMcIdEhLSpVPV 3x2Pj6KoqKjLTsuMjAzo6+vD19e3x/BeXl4wMjJCSUlJFx9OSEjAf/7zn17/JzQ0FFKpFPn5+epz YrEYXC5XvXzoaaW9vR0ffPCBBADee++9/4Co41tf+vr6bYBmvYF/69atFBwcTPfu3SOZTEYpKSnE 4XDUC3RjY2PJysqKkpOTSSqV0vfff0/6+vq0bNkyqq6uJiKi4uJi8vHxodWrVxOfzyeJRKJegHzk yBESCoXE5/Np9erVZG9vT8XFxaRQKIioYwG/ra0tbd++ncRiMSUlJZGTkxOtW7eOiDq+16hK68KF CyQUComIaNu2bTRkyBC6fPkytba20p07d8jb25syMzPVeXv//ffJycmJxGKxOq+hoaFUUFBAMpmM bt++TSYmJuq8agq5ubmK31/hQOfPn59MGvC+ocGWhQsXfoffFwkvWrRoP5fL9XhUHIVCoePr65sP PPwN/M3NzXTy5EmKjo6m2traB67t2LFDvZC/sbGR1q1bR+PHjycul0tyuZyuX79ORkZGdPv2bSLq WLT73nvvUWNjI0kkEtq0aRM5OjqqF+xv3ryZbGxs6Pr169Ta2ko3btwgFxcXys3NJSIioVBIR44c IQCUkZFBEomEamtradmyZTR8+HAqLS0lhUJBxcXFZG9vr/a7zr4SERFBaWlp1NzcTBs3biQ2m63e XFNeXk6rV68mHx8fKi4uJiIikUhE3t7eNHfuXKqtrVXHe+GFF9T3orKykqZNm0ZRUVFUXFys3jzz MHx8fB5YYD9z5kxydHSkjIwMam1tpZ07d6rrFNX9d3Z2pk2bNpFIJKLm5mZas2YNeXl5qesNoo63 kAOgoqKiR+qhUCho4sSJNYD2Dfx9lTNnzryi8rmQkJC0vn7XMyEhYYIq3sWLFx9ZNprI7t27KTAw kPLy8kgmk1FqaiqZm5vT6dOniajjpcOWlpaUlJREUqmUjh07RoaGhjRt2rQH2kWVXXduFy9cuEDN zc3qdlHliyr7njdvHtnY2NDGjRtJJBJReno6ubq60qpVq4ioo47o3sYSEe3YsYOsra3pypUr1Nra SklJSeTt7d1lQ8WaNWvI1taWGhoaiIhIJpNRZGQkTZo0iSorK6muro5iY2PJy8tLne7TyptvvskD Ot7AL5VK9RlEHb3b3bt3v/O3v/1tF4fDQWpqqnoNymBSWlqKb7/9FomJiRCJRHBwcMDChQsxc+ZM AB095C1btuD69etgMpmIjY1FcXEx8vPz4evri40bN3ZZGDh27FiMHTtWvcUX6FhMnJ+f32XN3Pff fw82m42pU6eCw+Fg4sSJ+P7778FkMvHqq6/i3XffBYPBwKlTp3Do0KEuaanWIhw6dAgnTpxAeXk5 PDw8sGrVKowcOVId9t///jfi4uJw4sQJ6Ovro7S0FN9884164aWjoyPeeustdV41gYaGBowZM0aQ n59vtXDhwu+/++67RYOt02BTVFTkNWzYsIx58+Yd+uijjz53c3Mr7WvcxMTEUePHj79JRLrx8fEP DN8DHWs5VU+OoaGhXbaBd74GdKw79PPzw969e5GSkgKRSAQnJycsXrxYPU1x+fJlHDp0SP1kGxAQ gLVr13bx9wMHDuDUqVOorq6Gl5cXVq1apR65unz5Mvbu3asOu27dOly+fBlpaR2ve2Kz2di9ezcW LlyoDjN27Fg4OzurfWXlypX44YcfcPfuXXh6euL9999Xv9bhnXfe6TJadfRox96Quro6fPHFF0hJ SQEATJgwAf/4xz/UUxX/+Mc/UFGhXj6EjRs39vqUruKrr77CwYMHkZ6erp4qaWxsxKZNm5CYmAh9 fX3ExsaiqKgI+fn56vt/5swZ/PzzzygpKYGuri4CAwOxdu3aLmtlPv30UyQkJCAhIeGhOgDAli1b 6jds2GBpa2vLy8zMDLa2tq57ZKTnGCJijBgx4q6hoWHrJ598srG/SyU+/vjjTZs3b95gYGCAuLg4 jB079kmp+kSorKzEf//7X9y5cwdNTU2ws7PDwoUL8dprrwHoeG3Lli1bcPXqVejo6GDOnDlobm5G enp6j+1iaGgoXnjhhS7t4nvvvYe0tLQe28X58+dDKBRi3rx5+Oabb9DS0oI33ngDH3zwARgMxgN1 ROd28ciRIzh69CgqKirg6emJd999t8trtXbu3IkzZ87g9OnT6g0JEokEX375JW7fvg25XI6wsDCs XbtWY9dT94VVq1bVff3119ZsNrvl9u3bY4YNG5bR5alhzpw5hwGQsbGxervr88yUKVMe2Nb7vNLY 2EijRo3iAR1vuJZIJGzSgCfkwZbLly9PKi0tdf2j8Tdt2rQBvz+pq16homVgkMvlNGnSJNq9e/dj TTc3N5ecnZ37tPX+4MGDjUDH1xouX748iTTApjVdysrKXK5evRr1R+PL5XLd+fPn/6Tyu86vTNHy aObNm9fl9U5a+o5EIqG5c+fWACA9Pb22s2fPTqXf7bKLkYpEIpMxY8bcAkA2NjbK9PT0QVV8sJDL 5ZSSkkJjx46ll156ifLz8wdbpUGFx+PRsGHDeADIxcWlrC/TcFrpe8Mwc+bM4wDI3Nz8qfvE0dNO c3MzLV26lEpLSx9bmrGxsXTv3r1Hhjtw4ECj6p1zW7duXUcaYI/Pi8jlct233377G1WH7L333lNP 1WvpGVW7+NJLL9HYsWPVSxe09I3i4mJlcHAwDwCZmpoKuy/zecBIJRIJe/LkyedVRrpv375BVH9w kEgk9Prrr6vl448/HmyVBo2rV69KzczMJADIz88vr7Ky0pE0oDJ9lqS9vZ31xhtvHFH53E8//dS/ QtLyVCGXy+njjz/mq8p727Zta0kD7PB5lL1798bq6+tLAZC7u7vy1q1bfSnC55Lu7eIHH3ww2Co9 FchkMtq+fXuDyt/9/Pzy8vPzfaibLfbaOHRelDxjxgwSCASDlhktA49UKqXVq1fzdHR0FABozJgx t+7fv29JGlCBPosil8t1O/vc4sWLSSKR9KfItDwFVFVV0fjx42vw+xviv/766/dJA+zveZbk5OQR np6eRb9PF9Obb775wGYZLVr+CNeuXWsbOnSoQFWvz5kz57BIJDKhHuzwoUZ68ODBeWZmZo0AyMDA QLlr164unx/R8mxy6tSpVicnpyYAxGKx2jdt2rRBJpMxSQMqzmdd9u/fv4jNZktUSwWe1h1fWrqi UCho9+7dTQYGBu0AyMHBoerGjRvjSANsTiuE1tZWg40bN35saGjYomo4V69ere2UaflD3Lx5UzF5 8uRqlS15e3sXPGrH7yONtLy83DkmJiZOlejQoUOVFy5cGITsaXnSpKWlKSIjI2tUZe3v759z9+7d 4aQBleXzJDk5Of5BQUGZqnKYPn16n16RoEUzuXXrVntISAi/U3me0o4ya6aUlpa6zpgx44SqrAwM DBTLly+nkpKSh5axFi1ERBcvXpSNHz++VmU/JiYmos8///zDtrY2PXqE7fXZSE+cODFDNZQLgIYN G6Y4evSo+mOlWp5erl69qpg2bZq6Fz9kyBDBrl273tGOhg2eyGQy5tdff/2+amQaAL399tvq93Fp 0XwSExMVr7zyitqv3N3di0+cODGDNMC+tPJwSUtLC3nttdeOqZZpAKDJkycrTp48qV3or6ULfD6f vvrqK6Gnp6d6XZilpeX9jRs3flxfX29BfbS5fhloW1ub3q5du96xsrKq61TByP/zn/9QU1PTgN4A LX+O9vZ2+umnn6RhYWHqJ3Y2my1Zs2bNF42NjWakARWiVgh8Pt/6r3/96z7Vrjsmk6mcN28ePa87 nTUdpVJJly5dkkVFRalHmI2NjZs3btz4cUtLiyFpgE1ppe9SUFDgvWjRov2qRf4AyNraWrZq1SrK zs7u2Qi0PPO0tbXR6dOn5dOnT69lsVhylW04OjpWbt++fZVYLDaiftraHzLQ1tZWgz179izx8fHJ Vymhp6enmD9/vjIuLq7Lm6i1aBapqam0cuXKOmtr6+ZOlQv/s88++0QgEAwhDagAtfKgFBUVeS5e vPhbPT29NlW5jR49Wv7dd99pF/prAKqnYx8fn/uq8jE3N2/45JNPPtNOST79Ul9fb7Fz584VwcHB GaryBUA+Pj5t69ato+TkZFIqlQ8ahpZnBolEQr/88oti/vz5tWZmZuq1hSwWq/211147dv78+cly uVyX/qCN/SkDVSgUOqdPn54WHR19pfNwrrOzs+yDDz6gu3fvag1UAygsLKQtW7aIAwMDBZ0rkuDg 4Ixvv/12cWtrqwFpQIWnlUdLZWWl49///vd/czicJlU5cjgceWxsLN24cUP7IDSAtLa20unTpxWv vvoqT09PT6YqDycnp4ovvvhiTW+7prTydEtKSkrYihUrdlpbW/M716eOjo7tS5YsobNnz5JIJCIt Tz8lJSW0Z8+e9ldffbXW0NCwrXN5h4SEpO3YsWMln8+3psdgV4/NQMvLy503btz4sYeHB7ezwg4O Dm3Lli2jixcvklQqfcK3TgtRx86t27dv09q1axv8/Pzudy4Pa2tr/sqVK3dkZWUFkgZUbFr5Y9LS 0mL43XffLVS9pFkltra27cuWLaO4uDjtzucngFgspqNHj8pnz57NMzExaVXddyaTKZs+ffqpP/t0 rJWnR+Ryue6NGzfGrVy5coerq2tpZz9kMpnK0aNHSzds2EDXrl3Ttn1PCXw+nw4fPqx4++2369zd 3Rs7l6mOjo5izJgxt7Zv376quLjYnR6zPam/Tfm4ICLGb7/9Nvro0aNvnDlzZlpZWZmr6pqenp4y OjpaERkZyYqMjERYWBiYTOZj/f/nlby8PFy7dq392rVrjXFxcRyRSGSgujZkyJD7kydPvjBr1qzj L7/88sXfP/St5Rnh3r17fgcOHHjr+PHjs7hcrqfqvJGRkeLll19GTEyMbkxMjEZ8b/Zpg4iQkZGB +Pj4lvj4+OarV69ayeVyHQBgMBg0fPjwlNdff/3Y/PnzD9rb29cMtr5aBo/09PSQs2fPvhIfHx+T lJQU3t7erqe6xmQyKSIioi08PNwgPDwc4eHhcHZ2Hkx1n3vkcjmys7Nx584deVJSUlNycrLOvXv3 LDqHsbS0rI+Kiro2adKkuGnTpp2xtbXlPSl9HntnrDuZmZnBZ8+efeX06dPTU1NTw4iIobpmamoq Hzt2LEVERLDCw8MxYsQImJubP1F9ngXEYjEyMjJw9+7d9lu3bglv375tyOfzjTuH8fLyKpo+ffrp adOmnRk9evRvurq6isHSV8vAkZWVFXT8+PFZJ06cmJmTkxPQ+Zq7u3vbhAkT9MaPH88IDw+Hj48P dHR0BktVjUQmkyEzMxNJSUmya9euNd24cYMtEAiMVNd1dHSUY8aMuT1z5swTM2fOPOHs7FzxsPS0 PJ9IJBKjmzdvjouPj4+5cuXKxKysrCClUtnF2ezs7NqGDx+uExYWxgoKCkJQUBDc3Ny0PvkEaG1t RV5eHrKysig9PV2UkZHRnpqaymlpadHrHM7IyEgybty4mxMnTrwSHR19ddiwYRk6OjrKgdDxiXfG OlNXV2d9/fr1CQkJCZEJCQmReXl5Q7uH8fT0bB0+fDgrODiYGRoaCl9f3+f6CUIgECA3NxdZWVny 9PT0prt37+rk5+ebKRSKLh7r7OxcERkZmRAVFXUtMjIywdXVtWyQVNaiIZSXl7vEx8fHqBoEgUBg 1fk6h8ORjRw5UhkREaEfHByMYcOGPVeNgUwmQ2FhITIyMpCWltaYlJQkT0tLM2ttbWV1Dufq6lo2 adKkuJiYmPjo6OirQ4YMuT9YOmt5OhEKhZykpKRwlSQnJ4/s7o8AYGRkJB86dGh7UFCQvq+vr66/ vz/c3d3h5uYGPT29npLW0gmhUIji4mIUFBSgoKCgNScnR5yVlcUqKSkx7d5mMhgM8vHxKQgPD08a OXJk8qhRoxIDAwOzmUymfDB0H9DOWHf4fL5NQkJCZHJy8siUlJThaWlpoWKx2Lh7OBMTE9nQoUPb /f39DXx9fXU9PDzg4eEBZ2fnZ2IkTSKRoKysDOXl5SgsLFQUFBSI8vPz5Tk5OUb3799ndw+vp6fX HhgYmD1ixIi7I0eOTJ4wYcJ1d3f3ksHQXcvTgVKp1MnMzAxOSEiITEpKCk9MTBxVUVHxwFNO98bA 19dX3RgYGhoOhup/GqFQiNLSUnC5XBQVFbVlZWU15+bm6hQUFHDa29t1O4fV0dFR+vr65kdERNyJ iIi4ExUVdc3T05M7WLpreXYpLi72SE5OHpmZmRmcnZ0dmJub619eXu7SU1hdXV1ydnZu9fT0JHd3 dwNPT09dZ2dnODo6wtnZGTY2NmCxWD1FfaaQSCSorKxEbW0tysrKUFFRIeVyuRIulwsul2vYU3sJ dLSZvr6++QEBATmBgYHZISEh6eHh4UlmZmZNA52H3hjUzlh3FAqFbn5+vu/du3dHpKWlhebm5vrn 5eUN5fF4tr3F4XA47S4uLu0uLi46Tk5O+nZ2drq2trawtraGlZUVbGxsYGNjAyMjo96SeGK0trZC IBCgtrYWAoEAAoEAPB5PUVtb21pTUyMtKyvTqaioMBAIBD0aEACYm5s3+vn53Rs6dGheaGho2vDh w1OCg4Mz9fT02gcyL1qePXg8nm1SUlL4nTt3IrKysoIe1hgAgJ2dndTNzU3u5ubGsre313dwcICN jQ3s7OxgbW0NOzs7mJmZDZj+RASBQIC6ujrweDzweDzU1dVRRUVFS01NjbS0tBSlpaXs+vr6HnuR urq6Cnd395KgoKAsVeU8YsSIuxwORzhgmdCipRNCoZCTk5MToJKioiIvLpfrWV5e7iKXy3tdYM1g MGBra9tqb2+vsLe3Z9jZ2enZ2NiwLC0toRILCwtYWlrCysoKHA5nILPVKwqFAvX19V2koaEB9fX1 JBAIWnk8XntNTY2ipqZGt6qqylAkEuk/LD1jY2Oxp6cn19PTk+vt7V0YFBSUFRAQkOPt7V2o6Wul Naoz1huNjY3mOTk5Affu3fPLz8/35XK5nhUVFc5lZWWuQqGwT1alq6tL5ubmbaampgoOh6MwNjYm Y2NjhrGxsa6RkZFS7/cxYGNjY2KxWAwA+gBgamoKkUgEAO0AlEqlEkKhkPH7MQmFQqVYLKbfhdHY 2MgUi8W6TU1N+t2funuDzWa3uLq6lqnE398/19fXN3/o0KF5T3LBoBYt3VE1Brm5uf45OTkBxcXF HiUlJe5lZWWuUqnU4FHxdXR0yNzcvI3D4Sg4HI7C1NSUTExMGCYmJjosFothYGDA1NHRAYfDIQAs ALoGBgZQKpVob2+XA5ADQGNjo9rHmpqaFCKRiJqbm9Hc3KzT3Nys29TUxGpsbHykPgBgYmLS7Obm Vurm5lbq7e1dGBAQkBMQEJDj5+d3z9DQsPVP3C4tWgYEmUzGqqiocOZyuZ4qqaysdKqpqbGvrKx0 4vP5NjKZrF9DY+bm5m1GRkZyAwMD4nA4CjabDQMDA4aZmRlDT0+P8fsABgtQt4sAoAdAR1dXF8bG xhAKhQAgA6AAgJaWFkZbWxuhw3chEomUUqmUxGIxiUQihlQqZYjFYp3m5maWVCrVbW5u7tfcK5vN bnFycqq0s7OrdXR0rHJ1dS3z9PTkenl5FXl4eBTb2Njw+5OeJvFUdMYeRlNTk1l5eblLWVmZa0VF hbNAILDi8/k2fD7fRiAQWNXV1VnzeDzbnqY/nzSGhoatVlZWAjs7u1orKyuBlZWVwNbWlmdtbV3n 5ORU6ezsXOHq6lpmZWUlGGjdtGjpD0TEqK2ttSspKXEvLS11q66uduDxeLYCgcCqurraoa6uzprP 59s0NDRYPDq1xwODwSBra+s6lY/Z2tryrKysBA4ODtUODg7V7u7uJW5ubqXaNV5annWUSqUOn8+3 qampsa+urnaorq52uH///pCGhgaL+vp6y+7S2NioEet7WCyWzNLSst7S0rLewsKiQfV7yJAh9y0t Leutra3rVB0vBweH6md51Pr/AGTCpBU1ScKeAAAAAElFTkSuQmCC "
       style="image-rendering:optimizeSpeed"
       preserveAspectRatio="none"
       height="13.229167"
       width="161.66042" />
  </g>
</svg>
